^C:\USERS\USER\DESKTOP\GLAD\SRC\GLAD.C
/c /IC:\USERS\USER\SOURCE\REPOS\OPENGL\INCLUDES /Zi /nologo /W3 /WX- /diagnostics:column /sdl /O2 /Oi /GL /D NDEBUG /D _CONSOLE /D _UNICODE /D UNICODE /Gm- /EHsc /MD /GS /Gy /fp:precise /Zc:wchar_t /Zc:forScope /Zc:inline /permissive- /Fo"X64\RELEASE\\" /Fd"X64\RELEASE\VC143.PDB" /external:W3 /Gd /TC /FC C:\USERS\USER\DESKTOP\GLAD\SRC\GLAD.C
^C:\USERS\USER\SOURCE\REPOS\OPENGL\OPENGL_LAB2_2\OPENGL_LAB2_2.CPP
/c /IC:\USERS\USER\SOURCE\REPOS\OPENGL\INCLUDES /Zi /nologo /W3 /WX- /diagnostics:column /sdl /O2 /Oi /GL /D NDEBUG /D _CONSOLE /D _UNICODE /D UNICODE /Gm- /EHsc /MD /GS /Gy /fp:precise /Zc:wchar_t /Zc:forScope /Zc:inline /permissive- /Fo"X64\RELEASE\\" /Fd"X64\RELEASE\VC143.PDB" /external:W3 /Gd /TP /FC C:\USERS\USER\SOURCE\REPOS\OPENGL\OPENGL_LAB2_2\OPENGL_LAB2_2.CPP
